Final Project Check Up Memo
…
Code

library(tidyverse)
library(skimr)
library(readr)

Code

nba_reg_szn <- read_delim("data///NBA_Data_301  - nba_reg_season.csv") %>% 
print()

# A tibble: 9,593 × 24
      RK Name     Season POS      GP   MIN   PTS   FGM   FGA `FG%` 3:00 …¹ `3PA`
   <dbl> <chr>    <chr>  <chr> <dbl> <dbl> <dbl> <dbl> <dbl> <dbl>   <dbl> <dbl>
 1     1 Allen I… 2001-… SG       60  43.7  31.4  11.1  27.8  39.8     1.3   4.5
 2     2 Shaquil… 2001-… C        67  36.1  27.2  10.6  18.3  57.9     0     0  
 3     3 Paul Pi… 2001-… SF       82  40.3  26.1   8.6  19.5  44.2     2.6   6.3
 4     4 Tracy M… 2001-… SG       76  38.3  25.6   9.4  20.9  45.1     1.4   3.7
 5     5 Tim Dun… 2001-… C        82  40.6  25.5   9.3  18.3  50.8     0     0.1
 6     6 Kobe Br… 2001-… SF       80  38.3  25.2   9.4  20    46.9     0.4   1.7
 7     7 Vince C… 2001-… G        60  39.8  24.7   9.3  21.8  42.8     2     5.2
 8     8 Chris W… 2001-… C        54  38.4  24.5   9.9  19.9  49.5     0.1   0.4
 9     9 Dirk No… 2001-… F        76  38    23.4   7.9  16.6  47.7     1.8   4.6
10    10 Michael… 2001-… G        60  34.9  22.9   9.2  22.1  41.6     0.2   0.9
# … with 9,583 more rows, 12 more variables: `3P%` <dbl>, FTM <dbl>, FTA <dbl>,
#   `FT%` <dbl>, REB <dbl>, AST <dbl>, STL <dbl>, BLK <dbl>, TO <dbl>,
#   DD2 <dbl>, TD3 <dbl>, PER <dbl>, and abbreviated variable name ¹​`3:00 PM`
…
